Kaggle - HousePrices - Exploratory
…
Las casas se compraron en mayo-jun-jul de 2006-2010 aprox.

data_e %>% group_by(Yr.Sold, Mo.Sold) %>% 
  summarise(cantidad = n()) %>% 
  arrange(desc(cantidad))

## `summarise()` regrouping output by 'Yr.Sold' (override with `.groups` argument)

## # A tibble: 55 x 3
## # Groups:   Yr.Sold [5]
##    Yr.Sold Mo.Sold cantidad
##      <int>   <int>    <int>
##  1    2006       7       53
##  2    2008       6       52
##  3    2009       6       48
##  4    2009       7       47
##  5    2007       5       44
##  6    2006       6       42
##  7    2007       6       42
##  8    2008       7       39
##  9    2008       5       38
## 10    2010       5       37
## # ... with 45 more rows

Los mejores vecindarios:

data_e %>% group_by(Neighborhood) %>% 
  summarise(cantidad = n()) %>% 
  arrange(desc(cantidad))

## `summarise()` ungrouping output (override with `.groups` argument)

## # A tibble: 27 x 2
##    Neighborhood cantidad
##    <chr>           <int>
##  1 NAmes             200
##  2 CollgCr           113
##  3 OldTown           104
##  4 Edwards            73
##  5 Sawyer             70
##  6 Gilbert            69
##  7 Somerst            57
##  8 NWAmes             55
##  9 SawyerW            55
## 10 Crawfor            49
## # ... with 17 more rows
…
